%YAML 1.1
%TAG !u! tag:unity3d.com,2011:
--- !u!74 &7400000
AnimationClip:
  m_ObjectHideFlags: 0
  m_CorrespondingSourceObject: {fileID: 0}
  m_PrefabInstance: {fileID: 0}
  m_PrefabAsset: {fileID: 0}
  m_Name: Enemigo3
  serializedVersion: 6
  m_Legacy: 0
  m_Compressed: 0
  m_UseHighQualityCurve: 1
  m_RotationCurves: []
  m_CompressedRotationCurves: []
  m_EulerCurves: []
  m_PositionCurves: []
  m_ScaleCurves: []
  m_FloatCurves: []
  m_PPtrCurves:
  - curve:
    - time: 0
      value: {fileID: 21300000, guid: fbdd3a7223ccd4f17a990a84390747d1, type: 3}
    - time: 0.033333335
      value: {fileID: 21300000, guid: 8a473934853a345678538e760db0671f, type: 3}
    - time: 0.06666667
      value: {fileID: 21300000, guid: f9bb5f7cf7ffc43aeb245e8781087aa8, type: 3}
    - time: 0.1
      value: {fileID: 21300000, guid: c3da0545ef95d430d86f57841631607c, type: 3}
    - time: 0.13333334
      value: {fileID: 21300000, guid: 8c3fe2a40246e4c65b8742e322b7952c, type: 3}
    - time: 0.16666667
      value: {fileID: 21300000, guid: 846961567f61a4215bd9c52f8c9337fe, type: 3}
    - time: 0.2
      value: {fileID: 21300000, guid: 658ae1626596f4614aee62e28c98e710, type: 3}
    - time: 0.23333333
      value: {fileID: 21300000, guid: b530047f7abea4e90ad54e143744309b, type: 3}
    - time: 0.26666668
      value: {fileID: 21300000, guid: 6540badf4966e436fa8a3901362c070d, type: 3}
    - time: 0.3
      value: {fileID: 21300000, guid: c2cbb532ea8a74501b0f817656abd7d7, type: 3}
    - time: 0.33333334
      value: {fileID: 21300000, guid: c2e34035c04bb45fdb35f56bac2fcb0d, type: 3}
    - time: 0.36666667
      value: {fileID: 21300000, guid: a6c42f065c8e543f2b432c2d2daa5c50, type: 3}
    - time: 0.4
      value: {fileID: 21300000, guid: 3662c4b697f334900a421ccadbc4bb4b, type: 3}
    - time: 0.43333334
      value: {fileID: 21300000, guid: a249f2bd0ea854f93a0346023d937c8c, type: 3}
    - time: 0.46666667
      value: {fileID: 21300000, guid: 66e98aa48793a4325ba93a02d397758b, type: 3}
    - time: 0.5
      value: {fileID: 21300000, guid: a689867748d754dbaac3ebb23e298441, type: 3}
    - time: 0.53333336
      value: {fileID: 21300000, guid: 5362050c555dd4c099b4b18c3c03212d, type: 3}
    - time: 0.56666666
      value: {fileID: 21300000, guid: 1194e6740bcbe40cd9ecad4a4e09d5c1, type: 3}
    - time: 0.6
      value: {fileID: 21300000, guid: 8f197d24145d3478b9467fa15ed09387, type: 3}
    - time: 0.6333333
      value: {fileID: 21300000, guid: f5b4f231d107d4d62b20974303852c57, type: 3}
    - time: 0.6666667
      value: {fileID: 21300000, guid: 49c00e680044e40bba02c882747242ae, type: 3}
    - time: 0.7
      value: {fileID: 21300000, guid: b79bd0d3eb18d4676a2ee143e6898001, type: 3}
    - time: 0.73333335
      value: {fileID: 21300000, guid: d1ce10f60d76e4534b6dc05387627d45, type: 3}
    - time: 0.76666665
      value: {fileID: 21300000, guid: 60ac5ad5771014097ad7b067831e23c1, type: 3}
    - time: 0.8
      value: {fileID: 21300000, guid: 38f66365ebbbe42d08bc9168c21a2ba8, type: 3}
    - time: 0.8333333
      value: {fileID: 21300000, guid: 4457a3ce6b75c4260b3726610cb62f8d, type: 3}
    - time: 0.8666667
      value: {fileID: 21300000, guid: 03c1386f06567477d8f40948b904fdbc, type: 3}
    - time: 0.9
      value: {fileID: 21300000, guid: 1d4cb91a25a9342c0aa7b84e65c1fb8f, type: 3}
    - time: 0.93333334
      value: {fileID: 21300000, guid: 86a4cda8c77f649b0b826d8f4f36567a, type: 3}
    - time: 0.96666664
      value: {fileID: 21300000, guid: ca3120781b3044e88a802920dceaa66a, type: 3}
    - time: 1
      value: {fileID: 21300000, guid: e54933b51af0d4175923d5fc399d62df, type: 3}
    - time: 1.0333333
      value: {fileID: 21300000, guid: 6245b72853c8e4406bfc62c332bc2932, type: 3}
    - time: 1.0666667
      value: {fileID: 21300000, guid: 9f5c57bb2be284ce1b65de4e469a2236, type: 3}
    - time: 1.1
      value: {fileID: 21300000, guid: ed02d82b1ece54fc0baeab9b636de4a9, type: 3}
    - time: 1.1333333
      value: {fileID: 21300000, guid: 9c4f25f48fbe0462b8a3f721844f5693, type: 3}
    - time: 1.1666666
      value: {fileID: 21300000, guid: 587e4ac1e07754180b5de884014713fd, type: 3}
    - time: 1.2
      value: {fileID: 21300000, guid: 07b7176f19a374886a9c06f98e34e936, type: 3}
    - time: 1.2333333
      value: {fileID: 21300000, guid: c7f55eafb496143f5a4facff1518ace1, type: 3}
    - time: 1.2666667
      value: {fileID: 21300000, guid: 92af4c47ec3e143e2900718a62719ae4, type: 3}
    - time: 1.3
      value: {fileID: 21300000, guid: a26a944716bd34dc183898517dcc93a2, type: 3}
    - time: 1.3333334
      value: {fileID: 21300000, guid: 6938411d6a8c0498487598b4fce84c9b, type: 3}
    - time: 1.3666667
      value: {fileID: 21300000, guid: 9ae4d12752ee04d5397ad601b3c5bc5f, type: 3}
    - time: 1.4
      value: {fileID: 21300000, guid: e74db0b6545774d94a23483e10944807, type: 3}
    - time: 1.4333333
      value: {fileID: 21300000, guid: 355585891b0df404d9baf15d7d1a06f8, type: 3}
    - time: 1.4666667
      value: {fileID: 21300000, guid: ec000389f211c46279d735a0a912fb5c, type: 3}
    - time: 1.5
      value: {fileID: 21300000, guid: 32a89fd82549c4c9eb031fbd0d3f6b7f, type: 3}
    - time: 1.5333333
      value: {fileID: 21300000, guid: 1fdfe91caa766401ba63231e29634d72, type: 3}
    - time: 1.5666667
      value: {fileID: 21300000, guid: 5586bc3c3de404dae91761b8d73f2366, type: 3}
    - time: 1.6
      value: {fileID: 21300000, guid: 16bff469cb7a842bf9031fb812631304, type: 3}
    - time: 1.6333333
      value: {fileID: 21300000, guid: 34c4f936d4d5e492e9f3d47ec5353161, type: 3}
    - time: 1.6666666
      value: {fileID: 21300000, guid: 95f09228c0abf4c65afcdd73c3929e7a, type: 3}
    - time: 1.7
      value: {fileID: 21300000, guid: fb5bb3c0e2aac4ab0abacea5b015d06d, type: 3}
    - time: 1.7333333
      value: {fileID: 21300000, guid: 1a9d54bf045d14d929f13bdb8dd57edc, type: 3}
    - time: 1.7666667
      value: {fileID: 21300000, guid: f566497ce48304fd9a0a6f14ffca8ed7, type: 3}
    - time: 1.8
      value: {fileID: 21300000, guid: ffd659325b2e343cb8fdebca00bba3b8, type: 3}
    - time: 1.8333334
      value: {fileID: 21300000, guid: 0e4ea4c1ce68d40a0b03ad5d52844029, type: 3}
    - time: 1.8666667
      value: {fileID: 21300000, guid: 1b42d7dc14ba5413b94640eb4ee52259, type: 3}
    - time: 1.9
      value: {fileID: 21300000, guid: 86a29230a7a124b2b8c76e518504988f, type: 3}
    - time: 1.9333333
      value: {fileID: 21300000, guid: b6b4478011f2e4a30a374e327e0dda99, type: 3}
    - time: 1.9666667
      value: {fileID: 21300000, guid: d4d9ad5762f4d4ee99719e6eb5894bc5, type: 3}
    attribute: m_Sprite
    path: 
    classID: 212
    script: {fileID: 0}
  m_SampleRate: 30
  m_WrapMode: 0
  m_Bounds:
    m_Center: {x: 0, y: 0, z: 0}
    m_Extent: {x: 0, y: 0, z: 0}
  m_ClipBindingConstant:
    genericBindings:
    - serializedVersion: 2
      path: 0
      attribute: 0
      script: {fileID: 0}
      typeID: 212
      customType: 23
      isPPtrCurve: 1
    pptrCurveMapping:
    - {fileID: 21300000, guid: fbdd3a7223ccd4f17a990a84390747d1, type: 3}
    - {fileID: 21300000, guid: 8a473934853a345678538e760db0671f, type: 3}
    - {fileID: 21300000, guid: f9bb5f7cf7ffc43aeb245e8781087aa8, type: 3}
    - {fileID: 21300000, guid: c3da0545ef95d430d86f57841631607c, type: 3}
    - {fileID: 21300000, guid: 8c3fe2a40246e4c65b8742e322b7952c, type: 3}
    - {fileID: 21300000, guid: 846961567f61a4215bd9c52f8c9337fe, type: 3}
    - {fileID: 21300000, guid: 658ae1626596f4614aee62e28c98e710, type: 3}
    - {fileID: 21300000, guid: b530047f7abea4e90ad54e143744309b, type: 3}
    - {fileID: 21300000, guid: 6540badf4966e436fa8a3901362c070d, type: 3}
    - {fileID: 21300000, guid: c2cbb532ea8a74501b0f817656abd7d7, type: 3}
    - {fileID: 21300000, guid: c2e34035c04bb45fdb35f56bac2fcb0d, type: 3}
    - {fileID: 21300000, guid: a6c42f065c8e543f2b432c2d2daa5c50, type: 3}
    - {fileID: 21300000, guid: 3662c4b697f334900a421ccadbc4bb4b, type: 3}
    - {fileID: 21300000, guid: a249f2bd0ea854f93a0346023d937c8c, type: 3}
    - {fileID: 21300000, guid: 66e98aa48793a4325ba93a02d397758b, type: 3}
    - {fileID: 21300000, guid: a689867748d754dbaac3ebb23e298441, type: 3}
    - {fileID: 21300000, guid: 5362050c555dd4c099b4b18c3c03212d, type: 3}
    - {fileID: 21300000, guid: 1194e6740bcbe40cd9ecad4a4e09d5c1, type: 3}
    - {fileID: 21300000, guid: 8f197d24145d3478b9467fa15ed09387, type: 3}
    - {fileID: 21300000, guid: f5b4f231d107d4d62b20974303852c57, type: 3}
    - {fileID: 21300000, guid: 49c00e680044e40bba02c882747242ae, type: 3}
    - {fileID: 21300000, guid: b79bd0d3eb18d4676a2ee143e6898001, type: 3}
    - {fileID: 21300000, guid: d1ce10f60d76e4534b6dc05387627d45, type: 3}
    - {fileID: 21300000, guid: 60ac5ad5771014097ad7b067831e23c1, type: 3}
    - {fileID: 21300000, guid: 38f66365ebbbe42d08bc9168c21a2ba8, type: 3}
    - {fileID: 21300000, guid: 4457a3ce6b75c4260b3726610cb62f8d, type: 3}
    - {fileID: 21300000, guid: 03c1386f06567477d8f40948b904fdbc, type: 3}
    - {fileID: 21300000, guid: 1d4cb91a25a9342c0aa7b84e65c1fb8f, type: 3}
    - {fileID: 21300000, guid: 86a4cda8c77f649b0b826d8f4f36567a, type: 3}
    - {fileID: 21300000, guid: ca3120781b3044e88a802920dceaa66a, type: 3}
    - {fileID: 21300000, guid: e54933b51af0d4175923d5fc399d62df, type: 3}
    - {fileID: 21300000, guid: 6245b72853c8e4406bfc62c332bc2932, type: 3}
    - {fileID: 21300000, guid: 9f5c57bb2be284ce1b65de4e469a2236, type: 3}
    - {fileID: 21300000, guid: ed02d82b1ece54fc0baeab9b636de4a9, type: 3}
    - {fileID: 21300000, guid: 9c4f25f48fbe0462b8a3f721844f5693, type: 3}
    - {fileID: 21300000, guid: 587e4ac1e07754180b5de884014713fd, type: 3}
    - {fileID: 21300000, guid: 07b7176f19a374886a9c06f98e34e936, type: 3}
    - {fileID: 21300000, guid: c7f55eafb496143f5a4facff1518ace1, type: 3}
    - {fileID: 21300000, guid: 92af4c47ec3e143e2900718a62719ae4, type: 3}
    - {fileID: 21300000, guid: a26a944716bd34dc183898517dcc93a2, type: 3}
    - {fileID: 21300000, guid: 6938411d6a8c0498487598b4fce84c9b, type: 3}
    - {fileID: 21300000, guid: 9ae4d12752ee04d5397ad601b3c5bc5f, type: 3}
    - {fileID: 21300000, guid: e74db0b6545774d94a23483e10944807, type: 3}
    - {fileID: 21300000, guid: 355585891b0df404d9baf15d7d1a06f8, type: 3}
    - {fileID: 21300000, guid: ec000389f211c46279d735a0a912fb5c, type: 3}
    - {fileID: 21300000, guid: 32a89fd82549c4c9eb031fbd0d3f6b7f, type: 3}
    - {fileID: 21300000, guid: 1fdfe91caa766401ba63231e29634d72, type: 3}
    - {fileID: 21300000, guid: 5586bc3c3de404dae91761b8d73f2366, type: 3}
    - {fileID: 21300000, guid: 16bff469cb7a842bf9031fb812631304, type: 3}
    - {fileID: 21300000, guid: 34c4f936d4d5e492e9f3d47ec5353161, type: 3}
    - {fileID: 21300000, guid: 95f09228c0abf4c65afcdd73c3929e7a, type: 3}
    - {fileID: 21300000, guid: fb5bb3c0e2aac4ab0abacea5b015d06d, type: 3}
    - {fileID: 21300000, guid: 1a9d54bf045d14d929f13bdb8dd57edc, type: 3}
    - {fileID: 21300000, guid: f566497ce48304fd9a0a6f14ffca8ed7, type: 3}
    - {fileID: 21300000, guid: ffd659325b2e343cb8fdebca00bba3b8, type: 3}
    - {fileID: 21300000, guid: 0e4ea4c1ce68d40a0b03ad5d52844029, type: 3}
    - {fileID: 21300000, guid: 1b42d7dc14ba5413b94640eb4ee52259, type: 3}
    - {fileID: 21300000, guid: 86a29230a7a124b2b8c76e518504988f, type: 3}
    - {fileID: 21300000, guid: b6b4478011f2e4a30a374e327e0dda99, type: 3}
    - {fileID: 21300000, guid: d4d9ad5762f4d4ee99719e6eb5894bc5, type: 3}
  m_AnimationClipSettings:
    serializedVersion: 2
    m_AdditiveReferencePoseClip: {fileID: 0}
    m_AdditiveReferencePoseTime: 0
    m_StartTime: 0
    m_StopTime: 2
    m_OrientationOffsetY: 0
    m_Level: 0
    m_CycleOffset: 0
    m_HasAdditiveReferencePose: 0
    m_LoopTime: 1
    m_LoopBlend: 0
    m_LoopBlendOrientation: 0
    m_LoopBlendPositionY: 0
    m_LoopBlendPositionXZ: 0
    m_KeepOriginalOrientation: 0
    m_KeepOriginalPositionY: 1
    m_KeepOriginalPositionXZ: 0
    m_HeightFromFeet: 0
    m_Mirror: 0
  m_EditorCurves: []
  m_EulerEditorCurves: []
  m_HasGenericRootTransform: 0
  m_HasMotionFloatCurves: 0
  m_Events: []
