%YAML 1.1
%TAG !u! tag:unity3d.com,2011:
--- !u!1045 &1
EditorBuildSettings:
  m_ObjectHideFlags: 0
  serializedVersion: 2
  m_Scenes:
  - enabled: 1
    path: Assets/Scenes/Menu.unity
    guid: 176d6233cc1fb2e49b1fb08a518db4ea
  - enabled: 1
    path: Assets/Scenes/Tutorial.unity
    guid: ab329655103fdbe42aeeb2440a681a31
  - enabled: 0
    path: 
    guid: 00000000000000000000000000000000
  - enabled: 1
    path: Assets/Scenes/Escenario1.unity
    guid: 2cda990e2423bbf4892e6590ba056729
  - enabled: 1
    path: Assets/Scenes/Escenario2.unity
    guid: 6fafae2baff51b844b19060de5fab47c
  - enabled: 1
    path: Assets/Scenes/Moderno1.unity
    guid: 1b33e6486279c86468c18b26f6042a9e
  - enabled: 1
    path: Assets/Scenes/Moderno2.unity
    guid: 3c1daa73f5b0c094e9ea85b97da43c0f
  - enabled: 1
    path: Assets/Scenes/Ganaste.unity
    guid: 0842859da49d6ac46af79831b06fc23d
  - enabled: 0
    path: 
    guid: 00000000000000000000000000000000
  - enabled: 1
    path: Assets/Scenes/GameOver2.unity
    guid: b281d9ef236f12748957eb26f5282bca
  - enabled: 1
    path: Assets/Scenes/PerdisteBossFinal.unity
    guid: afb783fb6311bb240a1779dc1baffc6a
  - enabled: 1
    path: Assets/Scenes/Ganastegolpegracia.unity
    guid: e9f3a0350b595d742b605ede916ac929
  - enabled: 1
    path: Assets/Scenes/Perdistegolpegracia.unity
    guid: bb51147330aa846469f1789bbbf5608d
  - enabled: 1
    path: Assets/Scenes/CUTSCENE.unity
    guid: 40cf2192336f1466da0702cd88762f65
  - enabled: 1
    path: Assets/Scenes/TutoMiniGolpeDeGracia.unity
    guid: 9baad0e9bc5bf4b62a61e835af1e5fb6
  - enabled: 1
    path: Assets/Scenes/tutoJefeFinal.unity
    guid: 6b53aa2ccaccd4a2a82c2f276e2974c2
  m_configObjects: {}
