%YAML 1.1
%TAG !u! tag:unity3d.com,2011:
--- !u!1001 &3820581305502324981
PrefabInstance:
  m_ObjectHideFlags: 0
  serializedVersion: 2
  m_Modification:
    m_TransformParent: {fileID: 0}
    m_Modifications:
    - target: {fileID: 6773622909174098260, guid: 0ec6dfa1172c844359b046d0b96e36e9,
        type: 3}
      propertyPath: m_LocalPosition.x
      value: 0
      objectReference: {fileID: 0}
    - target: {fileID: 6773622909174098260, guid: 0ec6dfa1172c844359b046d0b96e36e9,
        type: 3}
      propertyPath: m_LocalPosition.y
      value: 0
      objectReference: {fileID: 0}
    - target: {fileID: 6773622909174098260, guid: 0ec6dfa1172c844359b046d0b96e36e9,
        type: 3}
      propertyPath: m_LocalPosition.z
      value: 0
      objectReference: {fileID: 0}
    - target: {fileID: 6773622909174098260, guid: 0ec6dfa1172c844359b046d0b96e36e9,
        type: 3}
      propertyPath: m_LocalRotation.x
      value: 0
      objectReference: {fileID: 0}
    - target: {fileID: 6773622909174098260, guid: 0ec6dfa1172c844359b046d0b96e36e9,
        type: 3}
      propertyPath: m_LocalRotation.y
      value: 0
      objectReference: {fileID: 0}
    - target: {fileID: 6773622909174098260, guid: 0ec6dfa1172c844359b046d0b96e36e9,
        type: 3}
      propertyPath: m_LocalRotation.z
      value: 0
      objectReference: {fileID: 0}
    - target: {fileID: 6773622909174098260, guid: 0ec6dfa1172c844359b046d0b96e36e9,
        type: 3}
      propertyPath: m_LocalRotation.w
      value: 1
      objectReference: {fileID: 0}
    - target: {fileID: 6773622909174098260, guid: 0ec6dfa1172c844359b046d0b96e36e9,
        type: 3}
      propertyPath: m_RootOrder
      value: 0
      objectReference: {fileID: 0}
    - target: {fileID: 6773622909174098260, guid: 0ec6dfa1172c844359b046d0b96e36e9,
        type: 3}
      propertyPath: m_LocalEulerAnglesHint.x
      value: 0
      objectReference: {fileID: 0}
    - target: {fileID: 6773622909174098260, guid: 0ec6dfa1172c844359b046d0b96e36e9,
        type: 3}
      propertyPath: m_LocalEulerAnglesHint.y
      value: 0
      objectReference: {fileID: 0}
    - target: {fileID: 6773622909174098260, guid: 0ec6dfa1172c844359b046d0b96e36e9,
        type: 3}
      propertyPath: m_LocalEulerAnglesHint.z
      value: 0
      objectReference: {fileID: 0}
    - target: {fileID: 6773622909174098260, guid: 0ec6dfa1172c844359b046d0b96e36e9,
        type: 3}
      propertyPath: m_AnchoredPosition.x
      value: 0.11999512
      objectReference: {fileID: 0}
    - target: {fileID: 6773622909174098260, guid: 0ec6dfa1172c844359b046d0b96e36e9,
        type: 3}
      propertyPath: m_AnchoredPosition.y
      value: -492
      objectReference: {fileID: 0}
    - target: {fileID: 6773622909174098260, guid: 0ec6dfa1172c844359b046d0b96e36e9,
        type: 3}
      propertyPath: m_SizeDelta.x
      value: 0
      objectReference: {fileID: 0}
    - target: {fileID: 6773622909174098260, guid: 0ec6dfa1172c844359b046d0b96e36e9,
        type: 3}
      propertyPath: m_SizeDelta.y
      value: 0
      objectReference: {fileID: 0}
    - target: {fileID: 6773622909174098260, guid: 0ec6dfa1172c844359b046d0b96e36e9,
        type: 3}
      propertyPath: m_AnchorMin.x
      value: 0
      objectReference: {fileID: 0}
    - target: {fileID: 6773622909174098260, guid: 0ec6dfa1172c844359b046d0b96e36e9,
        type: 3}
      propertyPath: m_AnchorMin.y
      value: 0
      objectReference: {fileID: 0}
    - target: {fileID: 6773622909174098260, guid: 0ec6dfa1172c844359b046d0b96e36e9,
        type: 3}
      propertyPath: m_AnchorMax.x
      value: 1
      objectReference: {fileID: 0}
    - target: {fileID: 6773622909174098260, guid: 0ec6dfa1172c844359b046d0b96e36e9,
        type: 3}
      propertyPath: m_AnchorMax.y
      value: 1
      objectReference: {fileID: 0}
    - target: {fileID: 6773622909174098260, guid: 0ec6dfa1172c844359b046d0b96e36e9,
        type: 3}
      propertyPath: m_Pivot.x
      value: 0.5
      objectReference: {fileID: 0}
    - target: {fileID: 6773622909174098260, guid: 0ec6dfa1172c844359b046d0b96e36e9,
        type: 3}
      propertyPath: m_Pivot.y
      value: 0.5
      objectReference: {fileID: 0}
    - target: {fileID: 6773622909174098261, guid: 0ec6dfa1172c844359b046d0b96e36e9,
        type: 3}
      propertyPath: m_Controller
      value: 
      objectReference: {fileID: 9100000, guid: 0470d468745b54731b59737eefbfd70c, type: 2}
    - target: {fileID: 6773622909174098263, guid: 0ec6dfa1172c844359b046d0b96e36e9,
        type: 3}
      propertyPath: m_Name
      value: B1cutscene
      objectReference: {fileID: 0}
    m_RemovedComponents: []
  m_SourcePrefab: {fileID: 100100000, guid: 0ec6dfa1172c844359b046d0b96e36e9, type: 3}
