%YAML 1.1
%TAG !u! tag:unity3d.com,2011:
--- !u!74 &7400000
AnimationClip:
  m_ObjectHideFlags: 0
  m_CorrespondingSourceObject: {fileID: 0}
  m_PrefabInstance: {fileID: 0}
  m_PrefabAsset: {fileID: 0}
  m_Name: glitchVirus
  serializedVersion: 6
  m_Legacy: 0
  m_Compressed: 0
  m_UseHighQualityCurve: 1
  m_RotationCurves: []
  m_CompressedRotationCurves: []
  m_EulerCurves: []
  m_PositionCurves: []
  m_ScaleCurves: []
  m_FloatCurves: []
  m_PPtrCurves:
  - curve:
    - time: 0
      value: {fileID: 21300000, guid: 1de609c25a790440cbee93135e4de439, type: 3}
    - time: 0.05
      value: {fileID: 21300000, guid: fd709ca2194834e7f8a9f88e6dd68529, type: 3}
    - time: 0.1
      value: {fileID: 21300000, guid: 9fb5661b67f194fcb8934b4abf42774f, type: 3}
    - time: 0.15
      value: {fileID: 21300000, guid: e26f2e0318b744841b67a12ec9002dcf, type: 3}
    - time: 0.2
      value: {fileID: 21300000, guid: 5af2b45e26d1743c99939645281c4145, type: 3}
    - time: 0.25
      value: {fileID: 21300000, guid: bd3a7fe3795884901a530111dd6ee9c7, type: 3}
    - time: 0.28333333
      value: {fileID: 21300000, guid: 63d461547871840c2bf4e27f63d8379c, type: 3}
    - time: 0.35
      value: {fileID: 21300000, guid: ae2c25e588c0a4299add3b786b7943f7, type: 3}
    - time: 0.4
      value: {fileID: 21300000, guid: 3f029f49921af4bdb800989f91177c05, type: 3}
    - time: 0.45
      value: {fileID: 21300000, guid: 026155f71dac741e9bba66622ef35b0c, type: 3}
    - time: 0.5
      value: {fileID: 21300000, guid: 4b1e0bbf2c5f84d45bb1148b5b350f57, type: 3}
    - time: 0.55
      value: {fileID: 21300000, guid: cab3656efdc3c47aa9a9e235973c2fd8, type: 3}
    - time: 0.6
      value: {fileID: 21300000, guid: 5bc162c270b0048098c0b32f267e75fb, type: 3}
    - time: 0.65
      value: {fileID: 21300000, guid: 27261c39ebd7645629a1c1c81bb121fb, type: 3}
    - time: 0.71666664
      value: {fileID: 21300000, guid: a49b598805279416d939cc8648fe0fe5, type: 3}
    - time: 0.75
      value: {fileID: 21300000, guid: 87378f5f4b43b44f9a984250b48925b6, type: 3}
    - time: 0.8
      value: {fileID: 21300000, guid: b7ef5363c10aa403eb2ecb770c975f1c, type: 3}
    - time: 0.85
      value: {fileID: 21300000, guid: 5db012a3af0c040019c7758c6ccacfca, type: 3}
    - time: 0.9
      value: {fileID: 21300000, guid: 5d2aa1588f2ea4fe489485e31fddceb2, type: 3}
    - time: 0.95
      value: {fileID: 21300000, guid: c0796345004764fe6a61be8961892ac6, type: 3}
    - time: 1
      value: {fileID: 21300000, guid: f279fe919b0a7468fbe4665f8974a4f5, type: 3}
    - time: 1.05
      value: {fileID: 21300000, guid: db151ac1ebf1f40dab0ba225f725785a, type: 3}
    - time: 1.1
      value: {fileID: 21300000, guid: e08b5969f14e942a0b9ad7eead555378, type: 3}
    - time: 1.15
      value: {fileID: 21300000, guid: 1051c2f656c91452e809e162c1d8cb42, type: 3}
    - time: 1.2
      value: {fileID: 21300000, guid: 7dce258c58b77444181e39276338c07c, type: 3}
    - time: 1.25
      value: {fileID: 21300000, guid: 789cd1f9b7f4640be98b3e16645a32f0, type: 3}
    - time: 1.2833333
      value: {fileID: 21300000, guid: 2d0d30f01f7444c54b1de1bc7645a6f1, type: 3}
    - time: 1.35
      value: {fileID: 21300000, guid: 15aa223eba6024171a111be167a14b21, type: 3}
    - time: 1.4
      value: {fileID: 21300000, guid: 8b23ae7b5f3a34caf84873d7378ac2ca, type: 3}
    - time: 1.45
      value: {fileID: 21300000, guid: b3d53ab21906d49b4a0677ea80bbbec5, type: 3}
    - time: 1.5
      value: {fileID: 21300000, guid: 772ce26770bcc45f1bc50f6388af8ba1, type: 3}
    - time: 1.55
      value: {fileID: 21300000, guid: dda434f9eb3c84f6eb42f72882bf59e9, type: 3}
    - time: 1.6
      value: {fileID: 21300000, guid: e66fbc76571f34f56a81cdddfbe41765, type: 3}
    - time: 1.65
      value: {fileID: 21300000, guid: e3afe3633fe1c4ef081f38dd66303d7b, type: 3}
    - time: 1.7166667
      value: {fileID: 21300000, guid: f748959322f66476f90ac8e3927e8b3e, type: 3}
    - time: 1.75
      value: {fileID: 21300000, guid: db205b0dee0904b71aac0f132ffc85ec, type: 3}
    - time: 1.8
      value: {fileID: 21300000, guid: 8c9dfe0acca864c1694afb94877ad347, type: 3}
    - time: 1.85
      value: {fileID: 21300000, guid: ce2138fd9ac3b4c32a9fa8a36ded92b3, type: 3}
    - time: 1.9
      value: {fileID: 21300000, guid: ecdbb62fc037b4dd28b8c8ee541f5533, type: 3}
    - time: 1.95
      value: {fileID: 21300000, guid: 83d7bd1cea3d64be4a0ec321fb3127c5, type: 3}
    - time: 2
      value: {fileID: 21300000, guid: 3b17cf93cf8804f7fa0d3da5395ebcff, type: 3}
    - time: 2.05
      value: {fileID: 21300000, guid: 2fbbf2add1f0e448c889e9cb180f065b, type: 3}
    - time: 2.1
      value: {fileID: 21300000, guid: 4bb0d978c26064c30a36ee4c044b2920, type: 3}
    - time: 2.15
      value: {fileID: 21300000, guid: 37ad4b3f163b246e7b1f3c54d62f0b02, type: 3}
    - time: 2.2
      value: {fileID: 21300000, guid: eb43d9343c6b941848af3322abda0caa, type: 3}
    - time: 2.25
      value: {fileID: 21300000, guid: 8d2046b6de47a440eab3fff72bd1ba3f, type: 3}
    - time: 2.2833333
      value: {fileID: 21300000, guid: 8190bc9425cfa4965ba014efae3c2fc5, type: 3}
    - time: 2.35
      value: {fileID: 21300000, guid: b0d20e7f1b77c4ac4af50b9144112c9d, type: 3}
    - time: 2.4
      value: {fileID: 21300000, guid: 3f4d90e95f93d4a7a8fbf94ae3344a32, type: 3}
    - time: 2.45
      value: {fileID: 21300000, guid: 029df85c5fdc344128e272c313d679bb, type: 3}
    - time: 2.5
      value: {fileID: 21300000, guid: 3e274973f506b4dfcb6a805844985ae7, type: 3}
    - time: 2.55
      value: {fileID: 21300000, guid: 136106d24272140b9851555230d5ba30, type: 3}
    - time: 2.6
      value: {fileID: 21300000, guid: 057f0cd013f8a40c19a6cca4c83fadf3, type: 3}
    - time: 2.65
      value: {fileID: 21300000, guid: ab0c9591868d846b8a7563230fcf47e6, type: 3}
    - time: 2.7166667
      value: {fileID: 21300000, guid: e6707e456cd904108832a78fe523d40c, type: 3}
    - time: 2.75
      value: {fileID: 21300000, guid: 637e38866ea7f4ad3a730f1b9ffa6e6d, type: 3}
    - time: 2.8
      value: {fileID: 21300000, guid: c7f4ccddf06c0428685e047bac1f51b5, type: 3}
    - time: 2.85
      value: {fileID: 21300000, guid: d3ce3ba54a35747a08c01f5084ca4c25, type: 3}
    - time: 2.9
      value: {fileID: 21300000, guid: 89356700fba5844c5a3620eeac5d2c57, type: 3}
    - time: 2.95
      value: {fileID: 21300000, guid: 5115c41c935284582821ec70dcc14ca0, type: 3}
    - time: 3
      value: {fileID: 21300000, guid: 075a4cdac17724c8586706616698a3f4, type: 3}
    - time: 3.05
      value: {fileID: 21300000, guid: cc466195dcec9497692ede05d8ef74bd, type: 3}
    - time: 3.1
      value: {fileID: 21300000, guid: 658dbe2d4753648d7b670b32f3328d41, type: 3}
    - time: 3.15
      value: {fileID: 21300000, guid: 0add1f7b2b242467786b0da0f16ea518, type: 3}
    - time: 3.2
      value: {fileID: 21300000, guid: c24b3c3f75d8e447db97a5f0093cce32, type: 3}
    - time: 3.25
      value: {fileID: 21300000, guid: 50c5f605b8c4c481e91052cf78ceddf4, type: 3}
    - time: 3.2833333
      value: {fileID: 21300000, guid: 328c1c701fd78405da529e5729ab07ac, type: 3}
    - time: 3.35
      value: {fileID: 21300000, guid: b9a56d7b0412c4600ba2879f17b29a6b, type: 3}
    - time: 3.4
      value: {fileID: 21300000, guid: 131296c80b02544e3b0648161bd1e086, type: 3}
    - time: 3.45
      value: {fileID: 21300000, guid: bf6a99035d6b64b5b8ac627f841f6367, type: 3}
    - time: 3.5
      value: {fileID: 21300000, guid: 4d9234ed7b714404ba1d9c735504d164, type: 3}
    - time: 3.55
      value: {fileID: 21300000, guid: de1c902f9c8094f6f880eafd1c61228e, type: 3}
    - time: 3.6
      value: {fileID: 21300000, guid: 9c813c1141a52404ca9f0426aa70fa18, type: 3}
    - time: 3.65
      value: {fileID: 21300000, guid: 8a908664174a8449988cd2dce587c27d, type: 3}
    - time: 3.7166667
      value: {fileID: 21300000, guid: 8405164fb8a334f29a7fef5bf29ea88f, type: 3}
    - time: 3.75
      value: {fileID: 21300000, guid: 56b01a8c16edc484cb3cf6753733184e, type: 3}
    - time: 3.8
      value: {fileID: 21300000, guid: 880525912591d4007802960c145535e9, type: 3}
    - time: 3.85
      value: {fileID: 21300000, guid: 0d3c1c107659a41f592c32dcf6e78937, type: 3}
    - time: 3.9
      value: {fileID: 21300000, guid: a393ecd99188544d4bb8f34b89f2cb8d, type: 3}
    - time: 3.95
      value: {fileID: 21300000, guid: 1a01bc49cb510468ba7a448a20e5838c, type: 3}
    - time: 4
      value: {fileID: 21300000, guid: 69ff86abc2a8b4c50bae4fad22161541, type: 3}
    attribute: m_Sprite
    path: 
    classID: 212
    script: {fileID: 0}
  m_SampleRate: 60
  m_WrapMode: 0
  m_Bounds:
    m_Center: {x: 0, y: 0, z: 0}
    m_Extent: {x: 0, y: 0, z: 0}
  m_ClipBindingConstant:
    genericBindings:
    - serializedVersion: 2
      path: 0
      attribute: 0
      script: {fileID: 0}
      typeID: 212
      customType: 23
      isPPtrCurve: 1
    pptrCurveMapping:
    - {fileID: 21300000, guid: 1de609c25a790440cbee93135e4de439, type: 3}
    - {fileID: 21300000, guid: fd709ca2194834e7f8a9f88e6dd68529, type: 3}
    - {fileID: 21300000, guid: 9fb5661b67f194fcb8934b4abf42774f, type: 3}
    - {fileID: 21300000, guid: e26f2e0318b744841b67a12ec9002dcf, type: 3}
    - {fileID: 21300000, guid: 5af2b45e26d1743c99939645281c4145, type: 3}
    - {fileID: 21300000, guid: bd3a7fe3795884901a530111dd6ee9c7, type: 3}
    - {fileID: 21300000, guid: 63d461547871840c2bf4e27f63d8379c, type: 3}
    - {fileID: 21300000, guid: ae2c25e588c0a4299add3b786b7943f7, type: 3}
    - {fileID: 21300000, guid: 3f029f49921af4bdb800989f91177c05, type: 3}
    - {fileID: 21300000, guid: 026155f71dac741e9bba66622ef35b0c, type: 3}
    - {fileID: 21300000, guid: 4b1e0bbf2c5f84d45bb1148b5b350f57, type: 3}
    - {fileID: 21300000, guid: cab3656efdc3c47aa9a9e235973c2fd8, type: 3}
    - {fileID: 21300000, guid: 5bc162c270b0048098c0b32f267e75fb, type: 3}
    - {fileID: 21300000, guid: 27261c39ebd7645629a1c1c81bb121fb, type: 3}
    - {fileID: 21300000, guid: a49b598805279416d939cc8648fe0fe5, type: 3}
    - {fileID: 21300000, guid: 87378f5f4b43b44f9a984250b48925b6, type: 3}
    - {fileID: 21300000, guid: b7ef5363c10aa403eb2ecb770c975f1c, type: 3}
    - {fileID: 21300000, guid: 5db012a3af0c040019c7758c6ccacfca, type: 3}
    - {fileID: 21300000, guid: 5d2aa1588f2ea4fe489485e31fddceb2, type: 3}
    - {fileID: 21300000, guid: c0796345004764fe6a61be8961892ac6, type: 3}
    - {fileID: 21300000, guid: f279fe919b0a7468fbe4665f8974a4f5, type: 3}
    - {fileID: 21300000, guid: db151ac1ebf1f40dab0ba225f725785a, type: 3}
    - {fileID: 21300000, guid: e08b5969f14e942a0b9ad7eead555378, type: 3}
    - {fileID: 21300000, guid: 1051c2f656c91452e809e162c1d8cb42, type: 3}
    - {fileID: 21300000, guid: 7dce258c58b77444181e39276338c07c, type: 3}
    - {fileID: 21300000, guid: 789cd1f9b7f4640be98b3e16645a32f0, type: 3}
    - {fileID: 21300000, guid: 2d0d30f01f7444c54b1de1bc7645a6f1, type: 3}
    - {fileID: 21300000, guid: 15aa223eba6024171a111be167a14b21, type: 3}
    - {fileID: 21300000, guid: 8b23ae7b5f3a34caf84873d7378ac2ca, type: 3}
    - {fileID: 21300000, guid: b3d53ab21906d49b4a0677ea80bbbec5, type: 3}
    - {fileID: 21300000, guid: 772ce26770bcc45f1bc50f6388af8ba1, type: 3}
    - {fileID: 21300000, guid: dda434f9eb3c84f6eb42f72882bf59e9, type: 3}
    - {fileID: 21300000, guid: e66fbc76571f34f56a81cdddfbe41765, type: 3}
    - {fileID: 21300000, guid: e3afe3633fe1c4ef081f38dd66303d7b, type: 3}
    - {fileID: 21300000, guid: f748959322f66476f90ac8e3927e8b3e, type: 3}
    - {fileID: 21300000, guid: db205b0dee0904b71aac0f132ffc85ec, type: 3}
    - {fileID: 21300000, guid: 8c9dfe0acca864c1694afb94877ad347, type: 3}
    - {fileID: 21300000, guid: ce2138fd9ac3b4c32a9fa8a36ded92b3, type: 3}
    - {fileID: 21300000, guid: ecdbb62fc037b4dd28b8c8ee541f5533, type: 3}
    - {fileID: 21300000, guid: 83d7bd1cea3d64be4a0ec321fb3127c5, type: 3}
    - {fileID: 21300000, guid: 3b17cf93cf8804f7fa0d3da5395ebcff, type: 3}
    - {fileID: 21300000, guid: 2fbbf2add1f0e448c889e9cb180f065b, type: 3}
    - {fileID: 21300000, guid: 4bb0d978c26064c30a36ee4c044b2920, type: 3}
    - {fileID: 21300000, guid: 37ad4b3f163b246e7b1f3c54d62f0b02, type: 3}
    - {fileID: 21300000, guid: eb43d9343c6b941848af3322abda0caa, type: 3}
    - {fileID: 21300000, guid: 8d2046b6de47a440eab3fff72bd1ba3f, type: 3}
    - {fileID: 21300000, guid: 8190bc9425cfa4965ba014efae3c2fc5, type: 3}
    - {fileID: 21300000, guid: b0d20e7f1b77c4ac4af50b9144112c9d, type: 3}
    - {fileID: 21300000, guid: 3f4d90e95f93d4a7a8fbf94ae3344a32, type: 3}
    - {fileID: 21300000, guid: 029df85c5fdc344128e272c313d679bb, type: 3}
    - {fileID: 21300000, guid: 3e274973f506b4dfcb6a805844985ae7, type: 3}
    - {fileID: 21300000, guid: 136106d24272140b9851555230d5ba30, type: 3}
    - {fileID: 21300000, guid: 057f0cd013f8a40c19a6cca4c83fadf3, type: 3}
    - {fileID: 21300000, guid: ab0c9591868d846b8a7563230fcf47e6, type: 3}
    - {fileID: 21300000, guid: e6707e456cd904108832a78fe523d40c, type: 3}
    - {fileID: 21300000, guid: 637e38866ea7f4ad3a730f1b9ffa6e6d, type: 3}
    - {fileID: 21300000, guid: c7f4ccddf06c0428685e047bac1f51b5, type: 3}
    - {fileID: 21300000, guid: d3ce3ba54a35747a08c01f5084ca4c25, type: 3}
    - {fileID: 21300000, guid: 89356700fba5844c5a3620eeac5d2c57, type: 3}
    - {fileID: 21300000, guid: 5115c41c935284582821ec70dcc14ca0, type: 3}
    - {fileID: 21300000, guid: 075a4cdac17724c8586706616698a3f4, type: 3}
    - {fileID: 21300000, guid: cc466195dcec9497692ede05d8ef74bd, type: 3}
    - {fileID: 21300000, guid: 658dbe2d4753648d7b670b32f3328d41, type: 3}
    - {fileID: 21300000, guid: 0add1f7b2b242467786b0da0f16ea518, type: 3}
    - {fileID: 21300000, guid: c24b3c3f75d8e447db97a5f0093cce32, type: 3}
    - {fileID: 21300000, guid: 50c5f605b8c4c481e91052cf78ceddf4, type: 3}
    - {fileID: 21300000, guid: 328c1c701fd78405da529e5729ab07ac, type: 3}
    - {fileID: 21300000, guid: b9a56d7b0412c4600ba2879f17b29a6b, type: 3}
    - {fileID: 21300000, guid: 131296c80b02544e3b0648161bd1e086, type: 3}
    - {fileID: 21300000, guid: bf6a99035d6b64b5b8ac627f841f6367, type: 3}
    - {fileID: 21300000, guid: 4d9234ed7b714404ba1d9c735504d164, type: 3}
    - {fileID: 21300000, guid: de1c902f9c8094f6f880eafd1c61228e, type: 3}
    - {fileID: 21300000, guid: 9c813c1141a52404ca9f0426aa70fa18, type: 3}
    - {fileID: 21300000, guid: 8a908664174a8449988cd2dce587c27d, type: 3}
    - {fileID: 21300000, guid: 8405164fb8a334f29a7fef5bf29ea88f, type: 3}
    - {fileID: 21300000, guid: 56b01a8c16edc484cb3cf6753733184e, type: 3}
    - {fileID: 21300000, guid: 880525912591d4007802960c145535e9, type: 3}
    - {fileID: 21300000, guid: 0d3c1c107659a41f592c32dcf6e78937, type: 3}
    - {fileID: 21300000, guid: a393ecd99188544d4bb8f34b89f2cb8d, type: 3}
    - {fileID: 21300000, guid: 1a01bc49cb510468ba7a448a20e5838c, type: 3}
    - {fileID: 21300000, guid: 69ff86abc2a8b4c50bae4fad22161541, type: 3}
  m_AnimationClipSettings:
    serializedVersion: 2
    m_AdditiveReferencePoseClip: {fileID: 0}
    m_AdditiveReferencePoseTime: 0
    m_StartTime: 0
    m_StopTime: 4.016667
    m_OrientationOffsetY: 0
    m_Level: 0
    m_CycleOffset: 0
    m_HasAdditiveReferencePose: 0
    m_LoopTime: 1
    m_LoopBlend: 0
    m_LoopBlendOrientation: 0
    m_LoopBlendPositionY: 0
    m_LoopBlendPositionXZ: 0
    m_KeepOriginalOrientation: 0
    m_KeepOriginalPositionY: 1
    m_KeepOriginalPositionXZ: 0
    m_HeightFromFeet: 0
    m_Mirror: 0
  m_EditorCurves: []
  m_EulerEditorCurves: []
  m_HasGenericRootTransform: 0
  m_HasMotionFloatCurves: 0
  m_Events: []
